{
	"id": "850d7cf5-2bb9-ee8c-db46-5bd70468fbc8",
	"name": "BAS API",
	"description": "Api cung cap boi BAS Cloud System",
	"order": [],
	"folders": [
		{
			"id": "ddadc52e-3194-722c-6af2-36349b10eff2",
			"name": "Appointment",
			"description": "",
			"order": [
				"91f33ae9-e4fc-93b3-4e04-434c8fabc7b9",
				"44336287-dee4-d8a6-d724-b82aebf6e330",
				"84e7bdbb-c494-223e-ba8a-5810731cc5af",
				"23cf730d-89e1-dca9-0764-650e8035fc2f",
				"c4a76ba6-bcb2-1739-b85b-2f4e35ac17bf"
			],
			"owner": 0
		},
		{
			"id": "b0357d15-c567-2b9a-04f1-d34a61ce9b71",
			"name": "Campaign",
			"description": "",
			"order": [
				"9dfe0c87-ec53-bd93-17b0-dfd8731c7153",
				"5aae64da-fcb5-efd2-4c2c-b6a8bfabbf54"
			],
			"owner": 0
		},
		{
			"id": "66367d94-085b-e83d-938a-ca3d08114dcf",
			"name": "Check In",
			"description": "",
			"order": [
				"0b90aa30-3d43-1450-bc89-64be42eaf474",
				"40997974-accc-457e-0ee1-a8cb5645cd97",
				"445db67d-efd1-338f-1fe2-86f00cd51f66",
				"32f19f4d-0173-8aff-ff02-469cdb5fcc78",
				"ee434ab7-279f-6e6f-079f-94f0938b7083"
			],
			"owner": 0
		},
		{
			"id": "464aa512-2fe3-4b3b-65bf-3bddbd4cda9d",
			"name": "Customer",
			"description": "",
			"order": [
				"f67e243c-736e-b234-bc18-c57cbb24b04b",
				"93e3db7b-0a48-3b82-292d-38984278428f",
				"0c095a51-d70e-1668-9984-9d22ef18a82d",
				"8273114d-85d4-016e-bb11-4d9c5794a462",
				"93ae082a-36bf-4bc0-387a-b542d7ea8fc0",
				"9b672fc6-88fe-f86b-f712-0eeef099b5be"
			],
			"owner": 0
		},
		{
			"id": "420b8b7c-385a-b1f7-9fa3-d947f8e38a7a",
			"name": "Reedem",
			"description": "",
			"order": [
				"bd143caf-14e3-b52a-ad95-12c7a9e2ca7b"
			],
			"owner": 0
		},
		{
			"id": "d006cb91-5ebe-76b3-c769-e563652b0862",
			"name": "User",
			"description": "User API",
			"order": [
				"ba880f2d-e4f6-8746-4fc3-caca2c554a99",
				"ff9d5eaa-1427-6af1-5681-9eb03996f82e"
			],
			"owner": 0
		}
	],
	"timestamp": 0,
	"owner": 0,
	"public": false,
	"requests": [
		{
			"id": "0b90aa30-3d43-1450-bc89-64be42eaf474",
			"headers": "Authorization: Bearer PYD-RY6AnUUtH0YkEdEQOiVZnIvXJXXKD9s1-AMD\n",
			"headerData": [
				{
					"key": "Authorization",
					"value": "Bearer PYD-RY6AnUUtH0YkEdEQOiVZnIvXJXXKD9s1-AMD",
					"description": "",
					"enabled": true
				}
			],
			"url": "http://backend.bas.dev/api/v1/check-out/check-in-list",
			"queryParams": [],
			"preRequestScript": null,
			"pathVariables": {},
			"pathVariableData": [],
			"method": "GET",
			"data": null,
			"dataMode": "params",
			"tests": null,
			"currentHelper": "normal",
			"helperAttributes": {},
			"time": 1496550103281,
			"name": "Check In List",
			"description": "",
			"collectionId": "850d7cf5-2bb9-ee8c-db46-5bd70468fbc8",
			"responses": []
		},
		{
			"id": "0c095a51-d70e-1668-9984-9d22ef18a82d",
			"headers": "Authorization: Bearer ZXZMeBy1J13oS7pHKXZ78MIZaX9tRjs0qvPIOc_u\n",
			"url": "http://backend.bas.dev/api/v1/customer/update",
			"preRequestScript": null,
			"pathVariables": {},
			"method": "POST",
			"data": [
				{
					"key": "Customer[full_name]",
					"value": "Lam Dang",
					"type": "text",
					"enabled": true
				},
				{
					"key": "Customer[last_name]",
					"value": "Tran",
					"type": "text",
					"enabled": false
				},
				{
					"key": "Customer[birthday]",
					"value": "13-06-1993",
					"type": "text",
					"enabled": false
				},
				{
					"key": "Customer[email]",
					"value": "xfiremen12345@gmail.com",
					"type": "text",
					"enabled": true
				},
				{
					"key": "phone",
					"value": "8787878787",
					"type": "text",
					"enabled": true
				}
			],
			"dataMode": "params",
			"tests": null,
			"currentHelper": "normal",
			"helperAttributes": {},
			"time": 1496214874253,
			"name": "Customer Update",
			"description": "",
			"collectionId": "850d7cf5-2bb9-ee8c-db46-5bd70468fbc8",
			"responses": []
		},
		{
			"id": "23cf730d-89e1-dca9-0764-650e8035fc2f",
			"headers": "Authorization: Bearer sMBSL3qD1fPpsJ8ojsxdnyWBaYfc1iM95BbOT-PG\n",
			"headerData": [
				{
					"key": "Authorization",
					"value": "Bearer sMBSL3qD1fPpsJ8ojsxdnyWBaYfc1iM95BbOT-PG",
					"description": "",
					"enabled": true
				}
			],
			"url": "http://fastboy.gci.dev/api/v1/appointment/update-appointment",
			"queryParams": [],
			"preRequestScript": null,
			"pathVariables": {},
			"pathVariableData": [],
			"method": "POST",
			"data": [
				{
					"key": "Appointment[booker_name]",
					"value": "Toan",
					"description": "",
					"type": "text",
					"enabled": false
				},
				{
					"key": "Appointment[booker_contact]",
					"value": "0976022777",
					"description": "",
					"type": "text",
					"enabled": false
				},
				{
					"key": "Appointment[customer_id]",
					"value": "1",
					"description": "",
					"type": "text",
					"enabled": false
				},
				{
					"key": "Appointment[employee_id]",
					"value": "2",
					"description": "",
					"type": "text",
					"enabled": false
				},
				{
					"key": "Appointment[service_id]",
					"value": "2",
					"description": "",
					"type": "text",
					"enabled": false
				},
				{
					"key": "Appointment[start_time]",
					"value": "2017-09-22 16:00:00",
					"description": "",
					"type": "text",
					"enabled": false
				},
				{
					"key": "Appointment[end_time_expected]",
					"value": "2017-09-22 16:30:00",
					"description": "",
					"type": "text",
					"enabled": false
				},
				{
					"key": "Appointment[end_time]",
					"value": "2017-09-22 16:30:00",
					"description": "",
					"type": "text",
					"enabled": false
				},
				{
					"key": "Appointment[price_expected]",
					"value": "15",
					"description": "",
					"type": "text",
					"enabled": false
				},
				{
					"key": "Appointment[price_full]",
					"value": "15",
					"description": "",
					"type": "text",
					"enabled": false
				},
				{
					"key": "Appointment[discount]",
					"value": "0",
					"description": "",
					"type": "text",
					"enabled": false
				},
				{
					"key": "Appointment[price_final]",
					"value": "15",
					"description": "",
					"type": "text",
					"enabled": false
				},
				{
					"key": "Appointment[status]",
					"value": "completed",
					"description": "",
					"type": "text",
					"enabled": true
				},
				{
					"key": "id",
					"value": "1",
					"description": "",
					"type": "text",
					"enabled": true
				}
			],
			"dataMode": "params",
			"tests": null,
			"currentHelper": "normal",
			"helperAttributes": {},
			"time": 1505989661887,
			"name": "Update Appointment",
			"description": "",
			"collectionId": "850d7cf5-2bb9-ee8c-db46-5bd70468fbc8",
			"responses": []
		},
		{
			"id": "32f19f4d-0173-8aff-ff02-469cdb5fcc78",
			"headers": "Authorization: Bearer ZXZMeBy1J13oS7pHKXZ78MIZaX9tRjs0qvPIOc_u\n",
			"url": "http://backend.bas.dev/api/v1/check-out/update-checkout-point",
			"pathVariables": {},
			"preRequestScript": null,
			"method": "POST",
			"collectionId": "850d7cf5-2bb9-ee8c-db46-5bd70468fbc8",
			"data": [
				{
					"key": "checkout_id",
					"value": "1",
					"type": "text",
					"enabled": true
				},
				{
					"key": "point_bonus",
					"value": "700",
					"type": "text",
					"enabled": true
				},
				{
					"key": "staff_number",
					"value": "123",
					"type": "text",
					"enabled": true
				}
			],
			"dataMode": "params",
			"name": "Update CheckOut Point",
			"description": "",
			"descriptionFormat": "html",
			"time": 1495459376635,
			"version": 2,
			"responses": [],
			"tests": null,
			"currentHelper": "normal",
			"helperAttributes": {},
			"folder": "66367d94-085b-e83d-938a-ca3d08114dcf"
		},
		{
			"id": "40997974-accc-457e-0ee1-a8cb5645cd97",
			"headers": "Authorization: Bearer _bprhSRyGWkxtCLzaiHvEtrOjNmOm1pQWWpMoP_m\n",
			"headerData": [
				{
					"key": "Authorization",
					"value": "Bearer _bprhSRyGWkxtCLzaiHvEtrOjNmOm1pQWWpMoP_m",
					"description": "",
					"enabled": true
				}
			],
			"url": "http://backend.bas.dev/api/v1/check-out/checkout",
			"queryParams": [],
			"preRequestScript": null,
			"pathVariables": {},
			"pathVariableData": [],
			"method": "POST",
			"data": [
				{
					"key": "checkin_id",
					"value": "2",
					"type": "text",
					"enabled": true
				},
				{
					"key": "customer_id",
					"value": "173",
					"type": "text",
					"enabled": true
				},
				{
					"key": "point_bonus",
					"value": "500",
					"type": "text",
					"enabled": true
				},
				{
					"key": "staff_number",
					"value": "123",
					"type": "text",
					"enabled": true
				},
				{
					"key": "redeem_list",
					"value": "\"\"",
					"type": "text",
					"enabled": true
				},
				{
					"key": "promotion_code",
					"value": "",
					"description": "",
					"type": "text",
					"enabled": true
				},
				{
					"key": "total_price",
					"value": "0",
					"description": "",
					"type": "text",
					"enabled": true
				},
				{
					"key": "discount_value",
					"value": "0",
					"description": "",
					"type": "text",
					"enabled": true
				}
			],
			"dataMode": "params",
			"tests": null,
			"currentHelper": "normal",
			"helperAttributes": {},
			"time": 1498050493455,
			"name": "Check Out Submit",
			"description": "",
			"collectionId": "850d7cf5-2bb9-ee8c-db46-5bd70468fbc8",
			"responses": []
		},
		{
			"id": "44336287-dee4-d8a6-d724-b82aebf6e330",
			"headers": "Authorization: Bearer sMBSL3qD1fPpsJ8ojsxdnyWBaYfc1iM95BbOT-PG\n",
			"headerData": [
				{
					"key": "Authorization",
					"value": "Bearer sMBSL3qD1fPpsJ8ojsxdnyWBaYfc1iM95BbOT-PG",
					"description": "",
					"enabled": true
				}
			],
			"url": "http://fastboy.gci.dev/api/v1/appointment/fetch-all?from=09/20/2017&to=09/22/2017",
			"queryParams": [
				{
					"key": "from",
					"value": "09/20/2017",
					"equals": true,
					"description": "",
					"enabled": true
				},
				{
					"key": "to",
					"value": "09/22/2017",
					"equals": true,
					"description": "",
					"enabled": true
				}
			],
			"preRequestScript": null,
			"pathVariables": {},
			"pathVariableData": [],
			"method": "GET",
			"data": null,
			"dataMode": "params",
			"tests": null,
			"currentHelper": "normal",
			"helperAttributes": {},
			"time": 1505988368784,
			"name": "Appointment Fetch All Data",
			"description": "",
			"collectionId": "850d7cf5-2bb9-ee8c-db46-5bd70468fbc8",
			"responses": []
		},
		{
			"id": "445db67d-efd1-338f-1fe2-86f00cd51f66",
			"headers": "Authorization: Bearer H3Ri4XKIeYbVycniX9CFu4NvZQ5LSnix9_kjKbWJ\n",
			"url": "http://demo1.fast-boy.net/api/v1/check-out/check-out-list",
			"preRequestScript": null,
			"pathVariables": {},
			"method": "GET",
			"data": null,
			"dataMode": "params",
			"version": 2,
			"tests": null,
			"currentHelper": "normal",
			"helperAttributes": {},
			"time": 1495014111397,
			"name": "Get Check Out List",
			"description": "",
			"collectionId": "850d7cf5-2bb9-ee8c-db46-5bd70468fbc8",
			"responses": []
		},
		{
			"id": "5aae64da-fcb5-efd2-4c2c-b6a8bfabbf54",
			"headers": "Authorization: Bearer ZXZMeBy1J13oS7pHKXZ78MIZaX9tRjs0qvPIOc_u\n",
			"url": "http://backend.bas.dev/api/v1/campaign/check-submit?code=c14_CcnI98nfhyFsxUbl",
			"pathVariables": {},
			"preRequestScript": null,
			"method": "GET",
			"collectionId": "850d7cf5-2bb9-ee8c-db46-5bd70468fbc8",
			"data": null,
			"dataMode": "params",
			"name": "Submit Customer use Promotion",
			"description": "",
			"descriptionFormat": "html",
			"time": 1496311892898,
			"version": 2,
			"responses": [],
			"tests": null,
			"currentHelper": "normal",
			"helperAttributes": {},
			"folder": "b0357d15-c567-2b9a-04f1-d34a61ce9b71"
		},
		{
			"id": "8273114d-85d4-016e-bb11-4d9c5794a462",
			"headers": "Authorization: Bearer H3Ri4XKIeYbVycniX9CFu4NvZQ5LSnix9_kjKbWJ\n",
			"url": "http://demo1.fast-boy.net/api/v1/customer/check-in?phone=9036001782",
			"preRequestScript": null,
			"pathVariables": {},
			"method": "GET",
			"data": [],
			"dataMode": "params",
			"tests": null,
			"currentHelper": "normal",
			"helperAttributes": {},
			"time": 1495012942397,
			"name": "Customer Checkin",
			"description": "",
			"collectionId": "850d7cf5-2bb9-ee8c-db46-5bd70468fbc8",
			"responses": []
		},
		{
			"id": "84e7bdbb-c494-223e-ba8a-5810731cc5af",
			"headers": "Authorization: Bearer sMBSL3qD1fPpsJ8ojsxdnyWBaYfc1iM95BbOT-PG\n",
			"headerData": [
				{
					"key": "Authorization",
					"value": "Bearer sMBSL3qD1fPpsJ8ojsxdnyWBaYfc1iM95BbOT-PG",
					"description": "",
					"enabled": true
				}
			],
			"url": "http://fastboy.gci.dev/api/v1/appointment/make-appointment",
			"queryParams": [],
			"preRequestScript": null,
			"pathVariables": {},
			"pathVariableData": [],
			"method": "POST",
			"data": [
				{
					"key": "Appointment[booker_name]",
					"value": "Toan",
					"description": "",
					"type": "text",
					"enabled": true
				},
				{
					"key": "Appointment[booker_contact]",
					"value": "0976022777",
					"description": "",
					"type": "text",
					"enabled": true
				},
				{
					"key": "Appointment[customer_id]",
					"value": "1",
					"description": "",
					"type": "text",
					"enabled": true
				},
				{
					"key": "Appointment[employee_id]",
					"value": "2",
					"description": "",
					"type": "text",
					"enabled": true
				},
				{
					"key": "Appointment[service_id]",
					"value": "2",
					"description": "",
					"type": "text",
					"enabled": true
				},
				{
					"key": "Appointment[start_time]",
					"value": "2017-09-22 16:00:00",
					"description": "",
					"type": "text",
					"enabled": true
				},
				{
					"key": "Appointment[end_time_expected]",
					"value": "2017-09-22 16:30:00",
					"description": "",
					"type": "text",
					"enabled": true
				},
				{
					"key": "Appointment[end_time]",
					"value": "2017-09-22 16:30:00",
					"description": "",
					"type": "text",
					"enabled": true
				},
				{
					"key": "Appointment[price_expected]",
					"value": "15",
					"description": "",
					"type": "text",
					"enabled": true
				},
				{
					"key": "Appointment[price_full]",
					"value": "15",
					"description": "",
					"type": "text",
					"enabled": true
				},
				{
					"key": "Appointment[discount]",
					"value": "0",
					"description": "",
					"type": "text",
					"enabled": true
				},
				{
					"key": "Appointment[price_final]",
					"value": "15",
					"description": "",
					"type": "text",
					"enabled": true
				},
				{
					"key": "Appointment[status]",
					"value": "pending",
					"description": "",
					"type": "text",
					"enabled": true
				}
			],
			"dataMode": "params",
			"tests": null,
			"currentHelper": "normal",
			"helperAttributes": {},
			"time": 1505988371010,
			"name": "Make Appointment",
			"description": "",
			"collectionId": "850d7cf5-2bb9-ee8c-db46-5bd70468fbc8",
			"responses": []
		},
		{
			"id": "91f33ae9-e4fc-93b3-4e04-434c8fabc7b9",
			"headers": "Authorization: Bearer sMBSL3qD1fPpsJ8ojsxdnyWBaYfc1iM95BbOT-PG\n",
			"headerData": [
				{
					"key": "Authorization",
					"value": "Bearer sMBSL3qD1fPpsJ8ojsxdnyWBaYfc1iM95BbOT-PG",
					"description": "",
					"enabled": true
				}
			],
			"url": "http://fastboy.gci.dev/api/v1/appointment/services",
			"queryParams": [],
			"preRequestScript": null,
			"pathVariables": {},
			"pathVariableData": [],
			"method": "GET",
			"data": null,
			"dataMode": "params",
			"tests": null,
			"currentHelper": "normal",
			"helperAttributes": {},
			"time": 1505983242253,
			"name": "Appointment Get Services",
			"description": "",
			"collectionId": "850d7cf5-2bb9-ee8c-db46-5bd70468fbc8",
			"responses": []
		},
		{
			"id": "93ae082a-36bf-4bc0-387a-b542d7ea8fc0",
			"headers": "Authorization: Bearer H3Ri4XKIeYbVycniX9CFu4NvZQ5LSnix9_kjKbWJ\n",
			"url": "http://demo1.fast-boy.net/api/v1/customer/check-in-submit?phone=9036001782",
			"preRequestScript": null,
			"pathVariables": {},
			"method": "GET",
			"data": [],
			"dataMode": "params",
			"tests": null,
			"currentHelper": "normal",
			"helperAttributes": {},
			"time": 1495013095643,
			"name": "Customer Checkin Submit",
			"description": "",
			"collectionId": "850d7cf5-2bb9-ee8c-db46-5bd70468fbc8",
			"responses": []
		},
		{
			"id": "93e3db7b-0a48-3b82-292d-38984278428f",
			"name": "Get Info Customer",
			"description": "",
			"collectionId": "850d7cf5-2bb9-ee8c-db46-5bd70468fbc8",
			"method": "GET",
			"headers": "Authorization: Bearer zNjicuiBSUhSuZ9LXIxMMEnh4LSY0SO7n1_BGhi6",
			"data": [],
			"rawModeData": "",
			"url": "http://bas.dev/api/v1/customer/info?phone=12345678901",
			"responses": [],
			"folder": "464aa512-2fe3-4b3b-65bf-3bddbd4cda9d"
		},
		{
			"id": "9b672fc6-88fe-f86b-f712-0eeef099b5be",
			"headers": "Authorization: Bearer sMBSL3qD1fPpsJ8ojsxdnyWBaYfc1iM95BbOT-PG\n",
			"headerData": [
				{
					"key": "Authorization",
					"value": "Bearer sMBSL3qD1fPpsJ8ojsxdnyWBaYfc1iM95BbOT-PG",
					"description": "",
					"enabled": true
				}
			],
			"url": "http://fastboy.gci.dev/api/v1/customer/search?q=",
			"queryParams": [
				{
					"key": "q",
					"value": "",
					"equals": true,
					"description": "",
					"enabled": true
				}
			],
			"preRequestScript": null,
			"pathVariables": {},
			"pathVariableData": [],
			"method": "GET",
			"data": [],
			"dataMode": "params",
			"tests": null,
			"currentHelper": "normal",
			"helperAttributes": {},
			"time": 1505989916122,
			"name": "Search Customer",
			"description": "",
			"collectionId": "850d7cf5-2bb9-ee8c-db46-5bd70468fbc8",
			"responses": []
		},
		{
			"id": "9dfe0c87-ec53-bd93-17b0-dfd8731c7153",
			"headers": "Authorization: Bearer ZXZMeBy1J13oS7pHKXZ78MIZaX9tRjs0qvPIOc_u\n",
			"url": "http://backend.bas.dev/api/v1/campaign/check-customer?CustomerID=35",
			"pathVariables": {},
			"preRequestScript": null,
			"method": "GET",
			"collectionId": "850d7cf5-2bb9-ee8c-db46-5bd70468fbc8",
			"data": null,
			"dataMode": "params",
			"name": "Campaign Check Customer",
			"description": "",
			"descriptionFormat": "html",
			"time": 1496303046033,
			"version": 2,
			"responses": [],
			"tests": null,
			"currentHelper": "normal",
			"helperAttributes": {},
			"folder": "b0357d15-c567-2b9a-04f1-d34a61ce9b71"
		},
		{
			"id": "ba880f2d-e4f6-8746-4fc3-caca2c554a99",
			"headers": "",
			"headerData": [],
			"url": "http://fastboy.gci.dev/api/v1/user/login",
			"queryParams": [],
			"preRequestScript": null,
			"pathVariables": {},
			"pathVariableData": [],
			"method": "POST",
			"data": [
				{
					"key": "username",
					"value": "toan.nguyen",
					"type": "text",
					"enabled": true
				},
				{
					"key": "password",
					"value": "123456",
					"type": "text",
					"enabled": true
				}
			],
			"dataMode": "params",
			"tests": null,
			"currentHelper": "normal",
			"helperAttributes": {},
			"time": 1504619834792,
			"name": "User Login",
			"description": "",
			"collectionId": "850d7cf5-2bb9-ee8c-db46-5bd70468fbc8",
			"responses": []
		},
		{
			"id": "bd143caf-14e3-b52a-ad95-12c7a9e2ca7b",
			"name": "Redeem",
			"description": "",
			"collectionId": "850d7cf5-2bb9-ee8c-db46-5bd70468fbc8",
			"method": "GET",
			"headers": "Authorization: Bearer zNjicuiBSUhSuZ9LXIxMMEnh4LSY0SO7n1_BGhi6",
			"data": [],
			"rawModeData": "",
			"url": "http://bas.dev/api/v1/redeem/list",
			"responses": [],
			"folder": "420b8b7c-385a-b1f7-9fa3-d947f8e38a7a"
		},
		{
			"id": "c4a76ba6-bcb2-1739-b85b-2f4e35ac17bf",
			"headers": "Authorization: Bearer sMBSL3qD1fPpsJ8ojsxdnyWBaYfc1iM95BbOT-PG\n",
			"headerData": [
				{
					"key": "Authorization",
					"value": "Bearer sMBSL3qD1fPpsJ8ojsxdnyWBaYfc1iM95BbOT-PG",
					"description": "",
					"enabled": true
				}
			],
			"url": "http://fastboy.gci.dev/api/v1/appointment/cancel-appointment",
			"queryParams": [],
			"preRequestScript": null,
			"pathVariables": {},
			"pathVariableData": [],
			"method": "POST",
			"data": [
				{
					"key": "id",
					"value": "1",
					"description": "",
					"type": "text",
					"enabled": true
				},
				{
					"key": "note",
					"value": "Khach Den Tre",
					"description": "",
					"type": "text",
					"enabled": true
				}
			],
			"dataMode": "params",
			"tests": null,
			"currentHelper": "normal",
			"helperAttributes": {},
			"time": 1505990544971,
			"name": "Cancel Appointment",
			"description": "",
			"collectionId": "850d7cf5-2bb9-ee8c-db46-5bd70468fbc8",
			"responses": []
		},
		{
			"id": "ee434ab7-279f-6e6f-079f-94f0938b7083",
			"headers": "Authorization: Bearer ZXZMeBy1J13oS7pHKXZ78MIZaX9tRjs0qvPIOc_u\n",
			"url": "http://backend.bas.dev/api/v1/check-out/update-checkout-note",
			"pathVariables": {},
			"preRequestScript": null,
			"method": "POST",
			"collectionId": "850d7cf5-2bb9-ee8c-db46-5bd70468fbc8",
			"data": [
				{
					"key": "checkout_id",
					"value": "1",
					"type": "text",
					"enabled": true
				},
				{
					"key": "note",
					"value": "\"abc\"",
					"type": "text",
					"enabled": true
				}
			],
			"dataMode": "params",
			"name": "Update Check Out Note",
			"description": "",
			"descriptionFormat": "html",
			"time": 1495516744247,
			"version": 2,
			"responses": [],
			"tests": null,
			"currentHelper": "normal",
			"helperAttributes": {},
			"folder": "66367d94-085b-e83d-938a-ca3d08114dcf"
		},
		{
			"id": "f67e243c-736e-b234-bc18-c57cbb24b04b",
			"name": "Customer Add New",
			"description": "",
			"collectionId": "850d7cf5-2bb9-ee8c-db46-5bd70468fbc8",
			"method": "POST",
			"headers": "Authorization: Bearer zNjicuiBSUhSuZ9LXIxMMEnh4LSY0SO7n1_BGhi6",
			"dataMode": "params",
			"data": [
				{
					"key": "Customer[first_name]",
					"value": "Toan",
					"type": "text",
					"enabled": true
				},
				{
					"key": "Customer[last_name]",
					"value": "Nguyen",
					"type": "text",
					"enabled": true
				},
				{
					"key": "Customer[phone]",
					"value": "976022777",
					"type": "text",
					"enabled": true
				},
				{
					"key": "Customer[birthday]",
					"value": "13-06-1993",
					"type": "text",
					"enabled": true
				}
			],
			"rawModeData": "",
			"url": "http://bas.dev/api/v1/customer/add",
			"responses": [],
			"folder": "464aa512-2fe3-4b3b-65bf-3bddbd4cda9d"
		},
		{
			"id": "ff9d5eaa-1427-6af1-5681-9eb03996f82e",
			"name": "Get User Info",
			"description": "",
			"collectionId": "850d7cf5-2bb9-ee8c-db46-5bd70468fbc8",
			"method": "GET",
			"headers": "Authorization: Bearer zNjicuiBSUhSuZ9LXIxMMEnh4LSY0SO7n1_BGhi6",
			"data": [],
			"rawModeData": "",
			"url": "http://bas.dev/api/v1/user/info",
			"responses": [],
			"folder": "d006cb91-5ebe-76b3-c769-e563652b0862"
		}
	]
}